<svg width="1000" height="1000" viewBox="0 0 1000 1000" xmlns="http://www.w3.org/2000/svg">
    <path d="M803.425 674.524C780.363 660.378 745.606 638.994 746.1 616.294C749.559 471.05 714.801 360.348 645.78 296.526C629.966 281.887 612.505 269.879 593.726 260.667C606.904 243.725 614.647 223.164 614.647 200.958C614.647 143.715 563.251 97 499.996 97C436.74 97 385.345 143.715 385.345 200.958C385.345 223.164 393.087 243.725 406.265 260.667C387.486 269.879 370.025 281.887 354.211 296.526C285.19 360.513 250.597 471.05 253.892 616.294C254.386 638.994 219.628 660.378 196.566 674.524C174.163 688.341 146.159 705.612 156.043 734.562C165.927 763.513 180.588 770.257 357.506 771.737C365.577 836.546 423.891 903 499.996 903C576.1 903 634.249 836.546 642.486 771.737C819.404 770.257 834.229 763.513 843.948 734.562C853.832 705.612 825.993 688.341 803.425 674.524ZM500.16 164.112C522.563 164.112 540.684 180.561 540.684 200.958C540.684 221.19 522.563 237.803 500.16 237.803C477.757 237.803 459.637 221.354 459.637 200.958C459.637 180.725 477.757 164.112 500.16 164.112ZM500.16 835.888C468.862 835.888 440.364 803.484 432.787 772.231C452.224 772.231 548.096 772.231 567.534 772.231C559.957 803.484 531.459 835.888 500.16 835.888ZM278.271 703.145C304.628 682.255 329.008 653.798 328.019 614.978C325.054 489.966 353.223 393.575 407.254 343.57C433.281 319.39 464.579 306.724 500.16 305.738C535.742 306.724 567.04 319.39 593.067 343.57C647.098 393.575 675.102 489.966 672.301 614.978C671.478 653.798 695.693 682.255 722.049 703.145C660.441 704.954 339.88 704.954 278.271 703.145Z"/>
</svg>
