<svg width="1000" height="1000" viewBox="0 0 1000 1000" xmlns="http://www.w3.org/2000/svg">
    <path d="M923.773 218H76.2266C66.7141 218 59 225.71 59 235.217V763.783C59 773.29 66.7141 781 76.2266 781H923.773C933.286 781 941 773.29 941 763.783V235.217C941 225.71 933.286 218 923.773 218ZM906.547 746.566H93.4531V252.434H906.547V746.566Z"/>
    <path d="M574 602.5C574 654.607 616.45 697 668.627 697C684.053 697 699.018 693.296 712.5 686.225C725.982 693.296 740.947 697 756.373 697C808.55 697 851 654.607 851 602.5C851 550.393 808.55 508 756.373 508C740.947 508 725.982 511.704 712.5 518.775C699.018 511.704 684.053 508 668.627 508C616.45 508 574 550.393 574 602.5ZM756.634 567.827C753.267 559.255 748.593 551.092 742.839 543.889C747.242 542.877 751.774 542.362 756.373 542.362C789.577 542.362 816.59 569.339 816.59 602.498C816.59 635.657 789.577 662.636 756.373 662.636C751.774 662.636 747.24 662.121 742.839 661.109C763.685 635.018 768.795 598.799 756.634 567.827ZM712.5 561.37C722.88 572.415 728.845 587.067 728.845 602.5C728.845 617.933 722.88 632.585 712.5 643.63C702.12 632.584 696.155 617.931 696.155 602.5C696.155 587.069 702.12 572.415 712.5 561.37ZM666.893 633.168C670.35 643.216 675.52 652.796 682.161 661.111C677.76 662.121 673.226 662.636 668.627 662.636C635.423 662.636 608.41 635.659 608.41 602.5C608.41 569.341 635.423 542.364 668.627 542.364C673.226 542.364 677.76 542.879 682.161 543.891C681.934 544.176 681.724 544.474 681.5 544.76C662.22 569.688 656.644 603.376 666.893 633.168Z" fill="black"/>
    <path d="M480.778 643H174.222C164.712 643 157 650.613 157 660C157 669.387 164.712 677 174.222 677H480.778C490.288 677 498 669.387 498 660C498 650.613 490.288 643 480.778 643Z"/>
    <path d="M480.769 545H403.231C393.716 545 386 552.837 386 562.5C386 572.163 393.716 580 403.231 580H480.769C490.284 580 498 572.163 498 562.5C498 552.837 490.284 545 480.769 545Z"/>
    <path d="M151 452.5C151 461.611 158.712 469 168.222 469H691.778C701.288 469 709 461.611 709 452.5C709 443.389 701.288 436 691.778 436H168.222C158.712 436 151 443.389 151 452.5Z"/>
    <path d="M757.167 469H825.833C835.313 469 843 461.611 843 452.5C843 443.389 835.313 436 825.833 436H757.167C747.687 436 740 443.389 740 452.5C740 461.611 747.687 469 757.167 469Z"/>
    <path d="M163.284 398H268.716C278.26 398 286 390.344 286 380.903V309.097C286 299.656 278.26 292 268.716 292H163.284C153.74 292 146 299.656 146 309.097V380.903C146 390.344 153.74 398 163.284 398ZM180.568 326.194H251.432V363.806H180.568V326.194Z"/>
</svg>
